CKA 2023 1 1 1 10.4 14.2 1.2 -999.9 0.4 2.9 10.1 390.0 
CKA 2023 1 2 2 5.9 13.7 1.0 -999.9 1.6 2.1 9.6 390.0 
CKA 2023 1 3 3 5.3 10.9 4.5 -999.9 0.0 2.3 8.6 390.0 
CKA 2023 1 4 4 7.6 12.7 1.9 -999.9 0.1 5.0 10.0 390.0 
CKA 2023 1 5 5 9.1 12.1 2.3 -999.9 0.4 2.4 10.3 390.0 
CKA 2023 1 6 6 9.2 12.6 5.0 -999.9 0.0 2.3 10.8 390.0 
CKA 2023 1 7 7 7.6 11.2 2.8 -999.9 0.0 2.5 9.5 390.0 
CKA 2023 1 8 8 6.1 11.2 3.3 -999.9 0.8 2.2 9.4 390.0 
CKA 2023 1 9 9 4.1 8.8 3.7 -999.9 4.1 2.5 8.2 390.0 
CKA 2023 1 10 10 2.2 7.0 3.6 -999.9 1.9 3.3 7.1 390.0 
CKA 2023 1 11 11 6.8 10.1 2.3 -999.9 4.7 3.5 9.2 390.0 
CKA 2023 1 12 12 7.7 10.8 1.7 -999.9 2.1 4.9 9.7 390.0 
CKA 2023 1 13 13 6.8 10.4 4.3 -999.9 1.6 3.9 8.4 390.0 
CKA 2023 1 14 14 5.0 10.9 0.8 -999.9 5.5 4.2 9.0 390.0 
CKA 2023 1 15 15 3.1 8.6 4.2 -999.9 2.5 3.7 7.4 390.0 
CKA 2023 1 16 16 2.7 5.5 2.2 -999.9 2.2 3.3 7.3 390.0 
CKA 2023 1 17 17 -3.7 6.1 5.4 -999.9 0.4 1.2 5.1 390.0 
CKA 2023 1 18 18 -4.4 3.6 5.1 -999.9 0.0 1.2 4.9 390.0 
CKA 2023 1 19 19 -0.5 3.8 2.8 -999.9 0.9 2.0 5.7 390.0 
CKA 2023 1 20 20 -3.4 1.3 2.2 -999.9 4.2 1.3 5.2 390.0 
CKA 2023 1 21 21 -12.4 -1.0 1.3 -999.9 0.0 0.5 3.5 390.0 
CKA 2023 1 22 22 -1.5 -0.2 1.0 -999.9 0.5 1.3 5.6 390.0 
CKA 2023 1 23 23 -1.0 2.0 2.3 -999.9 0.0 0.5 5.9 390.0 
CKA 2023 1 24 24 0.1 1.5 1.4 -999.9 0.0 1.0 5.7 390.0 
CKA 2023 1 25 25 -2.7 0.1 0.8 -999.9 0.1 0.7 5.5 390.0 
CKA 2023 1 26 26 -3.9 1.7 1.1 -999.9 2.1 1.2 5.6 390.0 
CKA 2023 1 27 27 0.6 4.3 1.7 -999.9 1.6 1.1 6.9 390.0 
CKA 2023 1 28 28 -2.2 1.9 1.7 -999.9 0.0 0.9 5.2 390.0 
CKA 2023 1 29 29 -4.7 3.3 5.4 -999.9 0.0 1.8 4.9 390.0 
CKA 2023 1 30 30 1.5 7.3 3.2 -999.9 0.6 3.8 6.9 390.0 
CKA 2023 1 31 31 1.1 6.8 2.8 -999.9 2.3 2.7 6.9 390.0 
CKA 2023 2 1 32 4.2 7.1 3.9 -999.9 0.8 3.9 7.2 390.0 
CKA 2023 2 2 33 6.2 8.4 3.0 -999.9 0.5 3.6 8.5 390.0 
CKA 2023 2 3 34 7.3 9.3 1.6 -999.9 0.8 4.0 9.3 390.0 
CKA 2023 2 4 35 5.1 8.6 4.2 -999.9 0.2 1.3 8.7 390.0 
CKA 2023 2 5 36 4.2 5.8 0.9 -999.9 6.7 2.0 8.2 390.0 
CKA 2023 2 6 37 -1.5 4.6 5.1 -999.9 0.0 1.2 6.3 390.0 
CKA 2023 2 7 38 -4.7 4.7 9.7 -999.9 0.0 1.3 4.8 390.0 
CKA 2023 2 8 39 -5.2 5.4 9.7 -999.9 0.0 1.6 4.1 390.0 
CKA 2023 2 9 40 -5.7 5.8 8.9 -999.9 0.0 0.8 4.4 390.0 
CKA 2023 2 10 41 -1.3 8.2 6.4 -999.9 0.0 0.9 6.3 390.0 
CKA 2023 2 11 42 1.6 7.5 1.8 -999.9 0.0 0.8 7.8 390.0 
CKA 2023 2 12 43 4.0 8.5 3.2 -999.9 0.0 0.6 8.9 390.0 
CKA 2023 2 13 44 2.0 12.8 10.4 -999.9 0.0 1.9 8.7 390.0 
CKA 2023 2 14 45 -0.8 9.9 10.5 -999.9 0.0 2.1 7.6 390.0 
CKA 2023 2 15 46 -1.5 9.7 10.5 -999.9 0.0 2.5 7.0 390.0 
CKA 2023 2 16 47 0.2 11.1 3.6 -999.9 0.1 2.0 7.4 390.0 
CKA 2023 2 17 48 9.8 16.4 7.2 -999.9 0.2 3.4 11.9 390.0 
CKA 2023 2 18 49 9.4 10.9 2.8 -999.9 0.5 3.4 10.3 390.0 
CKA 2023 2 19 50 5.3 9.9 3.4 -999.9 3.9 2.6 9.3 390.0 
CKA 2023 2 20 51 2.3 14.5 11.2 -999.9 0.0 1.2 9.2 390.0 
CKA 2023 2 21 52 2.2 16.4 10.8 -999.9 0.0 0.6 10.4 390.0 
CKA 2023 2 22 53 0.5 14.0 8.4 -999.9 0.9 1.4 8.8 390.0 
CKA 2023 2 23 54 5.8 8.7 2.0 -999.9 2.7 0.9 10.0 390.0 
CKA 2023 2 24 55 2.9 5.8 3.1 -999.9 2.3 2.0 7.7 390.0 
CKA 2023 2 25 56 -1.6 5.4 5.6 -999.9 1.4 2.4 5.7 390.0 
CKA 2023 2 26 57 -3.4 2.9 6.0 -999.9 0.0 1.3 4.4 390.0 
CKA 2023 2 27 58 -6.1 6.0 12.9 -999.9 0.0 0.9 4.4 390.0 
CKA 2023 2 28 59 -5.2 5.0 12.2 -999.9 0.0 1.1 4.2 390.0 
CKA 2023 3 1 60 -6.5 8.5 13.1 -999.9 0.0 0.6 4.7 390.0 
CKA 2023 3 2 61 -5.0 10.4 13.5 -999.9 0.0 0.9 5.1 390.0 
CKA 2023 3 3 62 -2.5 1.3 3.1 -999.9 0.0 1.2 5.5 390.0 
CKA 2023 3 4 63 -0.9 5.4 3.9 -999.9 0.2 1.8 6.3 390.0 
CKA 2023 3 5 64 1.2 4.5 3.7 -999.9 1.2 1.4 6.4 390.0 
CKA 2023 3 6 65 0.7 4.6 4.4 -999.9 0.2 1.9 6.0 390.0 
CKA 2023 3 7 66 -0.4 7.0 6.9 -999.9 6.0 3.3 6.4 390.0 
CKA 2023 3 8 67 -0.7 5.5 4.8 -999.9 9.5 1.1 7.2 390.0 
CKA 2023 3 9 68 4.6 12.7 6.1 -999.9 3.0 2.0 10.2 390.0 
CKA 2023 3 10 69 0.1 11.7 8.2 -999.9 2.1 4.3 7.9 390.0 
CKA 2023 3 11 70 -2.4 6.0 11.8 -999.9 0.0 1.5 4.9 390.0 
CKA 2023 3 12 71 -1.4 11.3 5.8 -999.9 0.2 2.8 6.8 390.0 
CKA 2023 3 13 72 8.9 16.1 7.5 -999.9 0.1 4.1 11.1 390.0 
CKA 2023 3 14 73 1.4 11.4 5.8 -999.9 6.9 3.4 8.1 390.0 
CKA 2023 3 15 74 -0.2 8.1 10.8 -999.9 2.6 1.7 6.5 390.0 
CKA 2023 3 16 75 -0.4 11.8 11.7 -999.9 0.0 3.0 6.7 390.0 
CKA 2023 3 17 76 4.1 15.7 9.8 -999.9 0.7 2.1 7.9 390.0 
CKA 2023 3 18 77 6.9 16.5 9.9 -999.9 0.0 2.0 10.3 390.0 
CKA 2023 3 19 78 8.2 14.8 7.8 -999.9 3.6 2.1 11.0 390.0 
CKA 2023 3 20 79 5.7 10.5 6.9 -999.9 0.1 1.3 8.7 390.0 
CKA 2023 3 21 80 7.5 13.5 4.7 -999.9 4.7 2.2 10.5 390.0 
CKA 2023 3 22 81 7.6 13.5 7.7 -999.9 0.1 3.1 9.3 390.0 
CKA 2023 3 23 82 10.4 14.9 11.3 -999.9 0.1 4.0 10.6 390.0 
CKA 2023 3 24 83 8.1 15.5 14.4 -999.9 1.1 3.5 9.8 390.0 
CKA 2023 3 25 84 5.9 13.0 14.5 -999.9 1.8 4.2 8.1 390.0 
CKA 2023 3 26 85 4.1 8.7 3.6 -999.9 12.4 2.2 8.6 390.0 
CKA 2023 3 27 86 0.1 6.8 12.7 -999.9 3.4 2.3 6.4 390.0 
CKA 2023 3 28 87 -1.5 9.7 16.2 -999.9 0.8 1.9 5.7 390.0 
CKA 2023 3 29 88 3.7 15.5 10.4 -999.9 0.0 2.2 9.0 390.0 
CKA 2023 3 30 89 9.4 15.4 11.1 -999.9 2.7 3.6 10.5 390.0 
CKA 2023 3 31 90 8.9 13.9 10.1 -999.9 2.4 3.8 10.5 390.0 
CKA 2023 4 1 91 7.9 11.8 7.4 -999.9 2.9 3.1 10.2 390.0 
CKA 2023 4 2 92 3.5 7.9 2.1 -999.9 2.8 1.3 8.3 390.0 
CKA 2023 4 3 93 -0.0 8.8 22.5 -999.9 0.0 1.6 5.4 390.0 
CKA 2023 4 4 94 -3.9 10.0 21.2 -999.9 0.0 0.8 4.8 390.0 
CKA 2023 4 5 95 -2.2 12.8 21.9 -999.9 0.0 0.9 5.5 390.0 
CKA 2023 4 6 96 -1.7 12.0 12.4 -999.9 1.7 2.5 6.5 390.0 
CKA 2023 4 7 97 6.5 9.7 6.0 -999.9 5.3 1.7 10.1 390.0 
CKA 2023 4 8 98 5.2 10.8 7.8 -999.9 0.3 1.1 9.3 390.0 
CKA 2023 4 9 99 3.4 13.8 16.0 -999.9 0.0 1.5 8.3 390.0 
CKA 2023 4 10 100 2.3 17.1 14.6 -999.9 2.4 2.5 7.8 390.0 
CKA 2023 4 11 101 6.6 13.8 17.4 -999.9 0.1 2.6 7.9 390.0 
CKA 2023 4 12 102 5.1 13.6 9.5 -999.9 2.8 2.6 9.6 390.0 
CKA 2023 4 13 103 2.5 13.9 15.6 -999.9 5.8 2.7 7.8 390.0 
CKA 2023 4 14 104 0.1 14.4 19.0 -999.9 0.0 0.9 7.3 390.0 
CKA 2023 4 15 105 -0.2 12.5 10.7 -999.9 1.0 1.7 7.9 390.0 
CKA 2023 4 16 106 6.1 10.9 4.1 -999.9 2.7 2.2 10.7 390.0 
CKA 2023 4 17 107 6.4 14.0 9.2 -999.9 2.6 1.1 10.2 390.0 
CKA 2023 4 18 108 1.2 14.5 13.5 -999.9 0.0 1.5 8.2 390.0 
CKA 2023 4 19 109 3.6 15.8 19.4 -999.9 0.0 1.4 7.7 390.0 
CKA 2023 4 20 110 3.2 11.0 10.3 -999.9 6.4 1.3 8.3 390.0 
CKA 2023 4 21 111 4.8 17.2 21.4 -999.9 2.0 1.8 10.9 390.0 
CKA 2023 4 22 112 7.4 19.1 12.1 -999.9 0.5 2.3 11.8 390.0 
CKA 2023 4 23 113 8.6 17.2 13.1 -999.9 0.7 2.3 11.8 390.0 
CKA 2023 4 24 114 5.5 11.9 8.9 -999.9 2.5 2.4 9.1 390.0 
CKA 2023 4 25 115 4.0 9.9 13.2 -999.9 0.1 1.6 7.7 390.0 
CKA 2023 4 26 116 -0.8 12.6 20.9 -999.9 0.0 0.9 6.4 390.0 
CKA 2023 4 27 117 1.8 16.0 22.4 -999.9 0.0 0.7 7.6 390.0 
CKA 2023 4 28 118 8.8 20.2 14.6 -999.9 3.4 1.6 13.4 390.0 
CKA 2023 4 29 119 7.0 12.2 5.2 -999.9 0.4 1.5 10.8 390.0 
CKA 2023 4 30 120 2.8 19.6 24.1 -999.9 0.0 0.8 9.8 390.0 
CKA 2023 5 1 121 7.7 16.9 8.8 -999.9 0.2 1.3 11.2 390.0 
CKA 2023 5 2 122 2.9 13.4 12.1 -999.9 0.1 1.7 8.8 390.0 
CKA 2023 5 3 123 -0.6 18.7 27.1 -999.9 0.0 0.8 7.8 390.0 
CKA 2023 5 4 124 3.8 21.9 25.6 -999.9 0.0 1.9 9.6 390.0 
CKA 2023 5 5 125 10.3 22.0 13.3 -999.9 0.1 0.8 14.3 390.0 
CKA 2023 5 6 126 7.4 19.9 15.7 -999.9 5.0 0.7 13.4 390.0 
CKA 2023 5 7 127 11.2 21.6 13.3 -999.9 13.9 0.6 16.8 390.0 
CKA 2023 5 8 128 12.1 19.3 16.1 -999.9 0.0 1.1 16.5 390.0 
CKA 2023 5 9 129 11.5 20.3 11.2 -999.9 7.4 1.3 15.8 390.0 
CKA 2023 5 10 130 10.1 15.5 8.6 -999.9 11.1 0.9 13.8 390.0 
CKA 2023 5 11 131 7.7 15.7 12.8 -999.9 4.1 0.9 12.2 390.0 
CKA 2023 5 12 132 10.3 17.4 13.1 -999.9 9.1 1.2 14.0 390.0 
CKA 2023 5 13 133 7.1 20.0 17.5 -999.9 16.3 0.7 13.3 390.0 
CKA 2023 5 14 134 5.3 20.4 22.0 -999.9 0.0 0.8 11.4 390.0 
CKA 2023 5 15 135 10.1 18.5 22.7 -999.9 0.0 1.9 13.1 390.0 
CKA 2023 5 16 136 7.0 14.2 19.4 -999.9 5.5 2.1 9.7 390.0 
CKA 2023 5 17 137 4.3 15.3 23.0 -999.9 0.0 1.3 8.9 390.0 
CKA 2023 5 18 138 0.9 19.1 28.6 -999.9 0.0 0.7 8.5 390.0 
CKA 2023 5 19 139 2.7 21.3 25.5 -999.9 0.0 0.7 9.4 390.0 
CKA 2023 5 20 140 5.9 19.6 15.7 -999.9 0.0 0.9 11.2 390.0 
CKA 2023 5 21 141 10.7 24.4 25.1 -999.9 0.0 1.3 16.0 390.0 
CKA 2023 5 22 142 14.7 21.7 24.9 -999.9 0.0 1.7 17.6 390.0 
CKA 2023 5 23 143 7.7 16.7 11.1 -999.9 0.2 1.9 11.5 390.0 
CKA 2023 5 24 144 4.2 15.0 15.4 -999.9 0.0 1.0 9.1 390.0 
CKA 2023 5 25 145 3.8 18.6 26.0 -999.9 0.0 0.9 9.9 390.0 
CKA 2023 5 26 146 6.2 20.1 26.5 -999.9 0.0 1.1 11.0 390.0 
CKA 2023 5 27 147 4.2 24.4 29.6 -999.9 0.0 0.7 10.5 390.0 
CKA 2023 5 28 148 5.1 25.7 28.9 -999.9 0.0 0.8 10.8 390.0 
CKA 2023 5 29 149 9.9 21.7 28.5 -999.9 0.0 1.4 12.1 390.0 
CKA 2023 5 30 150 6.8 21.6 29.3 -999.9 0.0 1.1 9.9 390.0 
CKA 2023 5 31 151 7.7 25.7 29.9 -999.9 0.0 1.0 12.2 390.0 
CKA 2023 6 1 152 9.2 21.9 29.1 -999.9 0.0 1.4 12.9 390.0 
CKA 2023 6 2 153 9.3 20.7 26.5 -999.9 0.0 1.2 11.4 390.0 
CKA 2023 6 3 154 6.3 23.3 30.0 -999.9 0.0 0.9 10.0 390.0 
CKA 2023 6 4 155 4.6 24.6 30.1 -999.9 0.0 0.7 9.4 390.0 
CKA 2023 6 5 156 5.9 26.0 28.8 -999.9 0.0 0.7 10.6 390.0 
CKA 2023 6 6 157 9.5 26.8 28.3 -999.9 0.0 1.0 13.0 390.0 
CKA 2023 6 7 158 10.9 22.0 16.9 -999.9 0.2 0.9 14.7 390.0 
CKA 2023 6 8 159 11.1 26.5 25.0 -999.9 0.1 0.8 16.2 390.0 
CKA 2023 6 9 160 10.5 28.2 28.8 -999.9 0.0 1.4 14.8 390.0 
CKA 2023 6 10 161 12.3 29.3 26.9 -999.9 0.0 1.1 14.3 390.0 
CKA 2023 6 11 162 13.7 28.6 29.7 -999.9 0.0 1.6 15.0 390.0 
CKA 2023 6 12 163 10.4 28.4 29.0 -999.9 0.0 1.2 12.8 390.0 
CKA 2023 6 13 164 13.4 26.8 30.5 -999.9 0.0 1.4 11.7 390.0 
CKA 2023 6 14 165 9.4 24.5 30.2 -999.9 0.0 1.1 11.0 390.0 
CKA 2023 6 15 166 8.4 26.8 27.7 -999.9 0.1 0.7 11.6 390.0 
CKA 2023 6 16 167 8.6 27.1 29.1 -999.9 0.0 0.8 11.4 390.0 
CKA 2023 6 17 168 9.4 28.1 28.2 -999.9 0.0 0.7 11.8 390.0 
CKA 2023 6 18 169 11.5 31.0 22.6 -999.9 0.7 1.0 13.7 390.0 
CKA 2023 6 19 170 18.3 30.1 24.2 -999.9 0.0 1.3 17.9 390.0 
CKA 2023 6 20 171 17.5 30.3 21.4 -999.9 0.6 1.6 20.1 390.0 
CKA 2023 6 21 172 15.9 27.9 20.4 -999.9 0.1 1.0 19.0 390.0 
CKA 2023 6 22 173 16.4 25.7 12.9 -999.9 31.7 1.5 22.0 390.0 
CKA 2023 6 23 174 15.4 25.5 24.8 -999.9 0.3 1.9 17.6 390.0 
CKA 2023 6 24 175 13.3 28.8 26.5 -999.9 0.0 0.7 16.4 390.0 
CKA 2023 6 25 176 13.6 30.3 29.8 -999.9 0.1 1.3 15.7 390.0 
CKA 2023 6 26 177 14.4 23.8 24.7 -999.9 0.0 1.9 13.1 390.0 
CKA 2023 6 27 178 13.5 23.3 24.7 -999.9 0.4 1.6 12.2 390.0 
CKA 2023 6 28 179 13.7 24.7 13.8 -999.9 0.6 0.7 16.8 390.0 
CKA 2023 6 29 180 14.1 24.8 12.3 -999.9 3.2 1.0 17.2 390.0 
CKA 2023 6 30 181 12.2 22.1 22.9 -999.9 5.9 1.3 14.3 390.0 
CKA 2023 7 1 182 13.9 20.8 9.9 -999.9 3.7 1.9 15.4 390.0 
CKA 2023 7 2 183 13.1 21.6 17.6 -999.9 0.0 1.9 13.5 390.0 
CKA 2023 7 3 184 12.3 22.5 19.7 -999.9 0.1 2.5 12.1 390.0 
CKA 2023 7 4 185 12.6 23.3 19.8 -999.9 0.2 1.6 12.9 390.0 
CKA 2023 7 5 186 12.2 19.8 24.1 -999.9 8.6 3.4 13.1 390.0 
CKA 2023 7 6 187 10.4 23.8 24.9 -999.9 0.5 1.1 12.1 390.0 
CKA 2023 7 7 188 8.3 29.9 29.7 -999.9 0.0 1.0 12.9 390.0 
CKA 2023 7 8 189 13.5 34.3 26.8 -999.9 0.4 1.3 15.8 390.0 
CKA 2023 7 9 190 17.0 35.3 19.7 -999.9 1.2 1.4 23.5 390.0 
CKA 2023 7 10 191 16.1 27.0 19.4 -999.9 0.1 1.0 18.7 390.0 
CKA 2023 7 11 192 13.8 32.4 27.6 -999.9 0.7 2.1 15.7 390.0 
CKA 2023 7 12 193 16.5 25.1 22.6 -999.9 3.1 2.0 15.0 390.0 
CKA 2023 7 13 194 11.6 23.1 18.9 -999.9 0.0 1.7 12.1 390.0 
CKA 2023 7 14 195 11.7 28.3 23.1 -999.9 0.0 1.6 13.3 390.0 
CKA 2023 7 15 196 19.2 25.8 9.5 -999.9 1.1 3.2 16.7 390.0 
CKA 2023 7 16 197 15.8 24.5 26.0 -999.9 0.0 2.9 12.9 390.0 
CKA 2023 7 17 198 10.5 24.5 19.6 -999.9 0.0 1.6 12.1 390.0 
CKA 2023 7 18 199 10.0 27.2 21.2 -999.9 0.1 1.0 13.0 390.0 
CKA 2023 7 19 200 12.5 24.8 18.2 -999.9 0.1 1.4 13.4 390.0 
CKA 2023 7 20 201 12.3 23.4 19.6 -999.9 2.7 1.1 14.1 390.0 
CKA 2023 7 21 202 13.2 19.7 10.8 -999.9 8.5 1.0 15.0 390.0 
CKA 2023 7 22 203 8.4 23.9 25.9 -999.9 0.0 2.0 10.2 390.0 
CKA 2023 7 23 204 16.0 22.5 13.0 -999.9 0.4 3.0 15.1 390.0 
CKA 2023 7 24 205 14.9 24.2 18.6 -999.9 0.4 2.6 16.5 390.0 
CKA 2023 7 25 206 12.6 18.8 10.1 -999.9 0.6 1.3 13.8 390.0 
CKA 2023 7 26 207 12.3 20.4 16.9 -999.9 0.6 1.7 12.8 390.0 
CKA 2023 7 27 208 13.1 19.7 5.9 -999.9 16.5 1.8 16.1 390.0 
CKA 2023 7 28 209 15.3 24.0 12.4 -999.9 1.5 1.6 19.9 390.0 
CKA 2023 7 29 210 15.5 23.9 13.9 -999.9 4.6 1.0 19.8 390.0 
CKA 2023 7 30 211 14.9 22.0 16.6 -999.9 0.8 2.3 15.1 390.0 
CKA 2023 7 31 212 16.4 21.1 10.5 -999.9 3.9 3.1 17.0 390.0 
CKA 2023 8 1 213 14.6 20.2 16.3 -999.9 7.1 2.4 16.3 390.0 
CKA 2023 8 2 214 14.0 25.3 16.7 -999.9 4.1 3.0 18.5 390.0 
CKA 2023 8 3 215 15.1 20.7 17.1 -999.9 6.7 3.1 16.9 390.0 
CKA 2023 8 4 216 14.0 21.9 11.8 -999.9 0.9 1.1 16.9 390.0 
CKA 2023 8 5 217 11.1 21.7 15.4 -999.9 0.5 1.6 14.3 390.0 
CKA 2023 8 6 218 11.9 16.9 7.1 -999.9 12.6 2.5 15.1 390.0 
CKA 2023 8 7 219 11.2 19.6 15.1 -999.9 1.1 3.1 13.2 390.0 
CKA 2023 8 8 220 12.4 18.8 13.6 -999.9 1.8 2.5 12.9 390.0 
CKA 2023 8 9 221 12.2 22.5 23.5 -999.9 4.8 1.2 14.7 390.0 
CKA 2023 8 10 222 9.0 24.7 25.4 -999.9 0.0 0.7 12.8 390.0 
CKA 2023 8 11 223 12.3 29.6 24.0 -999.9 0.1 1.7 15.5 390.0 
CKA 2023 8 12 224 15.5 25.4 12.5 -999.9 13.5 1.2 21.5 390.0 
CKA 2023 8 13 225 14.1 24.7 14.7 -999.9 0.0 1.0 17.7 390.0 
CKA 2023 8 14 226 12.1 25.5 14.6 -999.9 3.5 1.3 18.2 390.0 
CKA 2023 8 15 227 17.6 26.2 11.0 -999.9 9.0 1.0 22.8 390.0 
CKA 2023 8 16 228 17.3 25.5 10.3 -999.9 2.7 0.8 22.8 390.0 
CKA 2023 8 17 229 16.8 24.8 10.0 -999.9 0.0 0.7 22.5 390.0 
CKA 2023 8 18 230 14.6 30.9 19.5 -999.9 0.0 1.0 23.4 390.0 
CKA 2023 8 19 231 19.0 31.3 11.9 -999.9 0.2 1.1 26.1 390.0 
CKA 2023 8 20 232 16.8 29.5 21.5 -999.9 0.1 0.6 22.7 390.0 
CKA 2023 8 21 233 16.8 28.0 21.3 -999.9 0.2 0.8 21.0 390.0 
CKA 2023 8 22 234 14.6 27.1 18.2 -999.9 0.0 0.7 18.2 390.0 
CKA 2023 8 23 235 12.4 29.2 22.7 -999.9 0.1 0.7 17.7 390.0 
CKA 2023 8 24 236 14.8 26.7 10.1 -999.9 2.2 1.4 20.6 390.0 
CKA 2023 8 25 237 16.0 24.3 6.8 -999.9 2.0 1.1 21.8 390.0 
CKA 2023 8 26 238 12.8 22.5 19.7 -999.9 0.0 1.8 13.5 390.0 
CKA 2023 8 27 239 11.1 21.4 13.2 -999.9 0.7 1.4 14.3 390.0 
CKA 2023 8 28 240 8.8 18.8 10.7 -999.9 0.0 0.7 13.1 390.0 
CKA 2023 8 29 241 12.5 21.3 12.4 -999.9 0.0 0.9 15.8 390.0 
CKA 2023 8 30 242 10.3 19.7 13.0 -999.9 3.4 1.7 14.3 390.0 
CKA 2023 8 31 243 9.3 19.1 14.5 -999.9 0.1 1.6 12.0 390.0 
CKA 2023 9 1 244 12.8 21.3 7.1 -999.9 8.1 1.0 18.3 390.0 
CKA 2023 9 2 245 12.6 25.6 18.6 -999.9 0.0 0.9 18.6 390.0 
CKA 2023 9 3 246 12.2 24.2 15.6 -999.9 0.0 0.5 17.5 390.0 
CKA 2023 9 4 247 9.0 27.0 21.3 -999.9 0.0 1.3 15.2 390.0 
CKA 2023 9 5 248 16.4 29.9 21.5 -999.9 0.0 2.0 16.4 390.0 
CKA 2023 9 6 249 11.2 29.3 21.4 -999.9 0.0 1.2 16.1 390.0 
CKA 2023 9 7 250 10.4 29.9 21.0 -999.9 0.0 1.2 16.7 390.0 
CKA 2023 9 8 251 12.3 31.2 20.4 -999.9 0.0 1.1 18.2 390.0 
CKA 2023 9 9 252 14.4 31.5 19.3 -999.9 0.0 0.6 19.7 390.0 
CKA 2023 9 10 253 14.8 31.8 18.8 -999.9 0.0 0.6 20.9 390.0 
CKA 2023 9 11 254 16.4 32.2 16.1 -999.9 0.0 1.1 20.3 390.0 
CKA 2023 9 12 255 17.1 26.1 10.5 -999.9 6.9 1.1 21.4 390.0 
CKA 2023 9 13 256 11.8 21.6 8.5 -999.9 0.1 1.2 16.7 390.0 
CKA 2023 9 14 257 8.8 22.2 17.6 -999.9 0.0 0.8 14.5 390.0 
CKA 2023 9 15 258 7.9 25.0 18.2 -999.9 0.0 1.1 14.4 390.0 
CKA 2023 9 16 259 11.2 26.6 12.9 -999.9 0.1 0.8 17.5 390.0 
CKA 2023 9 17 260 16.3 27.2 15.8 -999.9 0.4 1.3 20.7 390.0 
CKA 2023 9 18 261 14.4 24.0 13.2 -999.9 9.8 3.2 17.4 390.0 
CKA 2023 9 19 262 12.9 20.0 15.7 -999.9 0.0 2.7 13.3 390.0 
CKA 2023 9 20 263 13.1 23.6 11.5 -999.9 0.0 1.9 16.0 390.0 
CKA 2023 9 21 264 13.4 20.6 4.7 -999.9 9.0 2.0 16.1 390.0 
CKA 2023 9 22 265 10.5 18.7 10.8 -999.9 2.8 2.2 13.6 390.0 
CKA 2023 9 23 266 8.6 17.9 13.8 -999.9 0.0 2.0 11.4 390.0 
CKA 2023 9 24 267 6.2 20.3 17.5 -999.9 0.1 1.2 11.6 390.0 
CKA 2023 9 25 268 6.7 21.2 16.8 -999.9 0.0 1.3 11.7 390.0 
CKA 2023 9 26 269 7.6 24.2 15.4 -999.9 0.0 1.1 13.7 390.0 
CKA 2023 9 27 270 9.9 26.1 14.3 -999.9 0.0 1.1 15.9 390.0 
CKA 2023 9 28 271 13.2 25.9 13.7 -999.9 0.0 0.7 17.3 390.0 
CKA 2023 9 29 272 12.6 24.1 7.4 -999.9 3.2 1.7 17.4 390.0 
CKA 2023 9 30 273 9.6 20.1 13.6 -999.9 0.1 0.9 14.1 390.0 
CKA 2023 10 1 274 9.3 25.8 15.0 -999.9 0.0 1.6 14.6 390.0 
CKA 2023 10 2 275 13.4 28.0 14.0 -999.9 0.0 1.3 16.8 390.0 
CKA 2023 10 3 276 11.5 20.9 4.7 -999.9 5.0 2.6 13.9 390.0 
CKA 2023 10 4 277 10.7 17.1 10.2 -999.9 0.0 2.1 11.9 390.0 
CKA 2023 10 5 278 9.1 17.2 7.1 -999.9 0.0 1.6 11.7 390.0 
CKA 2023 10 6 279 8.9 21.0 12.3 -999.9 0.0 1.2 12.8 390.0 
CKA 2023 10 7 280 10.1 23.8 10.8 -999.9 0.0 1.4 14.5 390.0 
CKA 2023 10 8 281 11.9 22.9 10.1 -999.9 0.0 0.7 15.3 390.0 
CKA 2023 10 9 282 11.5 24.7 7.3 -999.9 0.0 0.6 14.9 390.0 
CKA 2023 10 10 283 10.1 26.8 11.5 -999.9 0.0 1.6 14.5 390.0 
CKA 2023 10 11 284 12.5 25.8 11.7 -999.9 0.0 2.7 13.0 390.0 
CKA 2023 10 12 285 14.3 20.3 3.1 -999.9 6.3 1.5 16.5 390.0 
CKA 2023 10 13 286 15.7 24.0 6.5 -999.9 0.3 3.0 17.5 390.0 
CKA 2023 10 14 287 7.2 18.9 11.0 -999.9 3.4 2.9 11.4 390.0 
CKA 2023 10 15 288 2.5 10.3 7.4 -999.9 1.7 1.6 7.9 390.0 
CKA 2023 10 16 289 -0.2 10.8 9.7 -999.9 0.0 0.5 8.0 390.0 
CKA 2023 10 17 290 2.5 12.9 9.8 -999.9 0.0 0.9 8.9 390.0 
CKA 2023 10 18 291 5.6 13.6 8.4 -999.9 3.2 2.9 9.1 390.0 
CKA 2023 10 19 292 9.6 18.4 4.7 -999.9 1.4 1.4 15.4 390.0 
CKA 2023 10 20 293 11.5 16.2 3.4 -999.9 4.9 2.0 15.1 390.0 
CKA 2023 10 21 294 11.9 16.4 11.1 -999.9 7.6 2.9 12.5 390.0 
CKA 2023 10 22 295 9.5 14.8 4.9 -999.9 0.6 2.8 11.8 390.0 
CKA 2023 10 23 296 6.1 12.2 4.6 -999.9 1.8 1.7 11.0 390.0 
CKA 2023 10 24 297 6.4 15.3 3.7 -999.9 0.5 1.2 11.6 390.0 
CKA 2023 10 25 298 5.6 11.8 2.5 -999.9 5.5 1.9 10.9 390.0 
CKA 2023 10 26 299 7.9 11.9 3.8 -999.9 0.9 1.3 11.1 390.0 
CKA 2023 10 27 300 7.9 14.1 4.9 -999.9 5.7 1.8 11.9 390.0 
CKA 2023 10 28 301 8.0 14.9 8.2 -999.9 1.4 2.1 11.9 390.0 
CKA 2023 10 29 302 11.4 14.8 4.3 -999.9 0.4 4.2 12.1 390.0 
CKA 2023 10 30 303 10.8 16.0 3.9 -999.9 2.3 2.1 13.3 390.0 
CKA 2023 10 31 304 8.9 14.7 8.0 -999.9 0.4 2.2 11.3 390.0 
CKA 2023 11 1 305 9.4 13.3 1.9 -999.9 0.6 2.1 11.5 390.0 
CKA 2023 11 2 306 9.1 14.3 5.1 -999.9 1.3 4.9 10.2 390.0 
CKA 2023 11 3 307 4.6 12.3 8.4 -999.9 0.0 2.7 8.1 390.0 
CKA 2023 11 4 308 7.0 10.0 2.2 -999.9 1.3 2.7 9.5 390.0 
CKA 2023 11 5 309 8.6 13.4 6.4 -999.9 1.3 3.2 10.7 390.0 
CKA 2023 11 6 310 7.9 12.4 7.1 -999.9 0.3 2.8 9.7 390.0 
CKA 2023 11 7 311 5.8 12.1 5.4 -999.9 0.3 2.0 9.6 390.0 
CKA 2023 11 8 312 7.8 11.4 5.5 -999.9 1.9 3.0 9.3 390.0 
CKA 2023 11 9 313 5.6 11.4 4.2 -999.9 3.0 3.9 9.3 390.0 
CKA 2023 11 10 314 3.2 9.3 6.3 -999.9 2.3 2.1 8.0 390.0 
CKA 2023 11 11 315 4.5 9.1 5.4 -999.9 3.3 2.4 8.5 390.0 
CKA 2023 11 12 316 0.3 9.0 3.7 -999.9 0.0 1.0 7.8 390.0 
CKA 2023 11 13 317 4.7 15.0 1.4 -999.9 7.1 2.9 10.8 390.0 
CKA 2023 11 14 318 8.4 13.1 2.5 -999.9 2.3 4.1 10.2 390.0 
CKA 2023 11 15 319 7.2 12.6 4.4 -999.9 0.4 2.6 9.8 390.0 
CKA 2023 11 16 320 5.3 7.5 1.7 -999.9 0.4 1.3 8.9 390.0 
CKA 2023 11 17 321 1.0 6.5 1.1 -999.9 4.6 0.7 7.9 390.0 
CKA 2023 11 18 322 2.9 10.6 1.1 -999.9 4.4 2.6 9.3 390.0 
CKA 2023 11 19 323 10.3 14.0 4.4 -999.9 0.1 3.6 10.9 390.0 
CKA 2023 11 20 324 7.0 12.1 3.9 -999.9 4.7 1.9 10.4 390.0 
CKA 2023 11 21 325 5.3 8.9 1.7 -999.9 1.7 1.0 9.8 390.0 
CKA 2023 11 22 326 1.2 7.9 5.8 -999.9 0.0 0.6 6.6 390.0 
CKA 2023 11 23 327 2.9 11.6 2.2 -999.9 0.1 3.2 8.5 390.0 
CKA 2023 11 24 328 2.0 10.6 3.2 -999.9 3.7 3.9 8.3 390.0 
CKA 2023 11 25 329 1.5 5.5 2.0 -999.9 0.6 3.1 7.0 390.0 
CKA 2023 11 26 330 1.5 6.4 1.9 -999.9 1.8 1.4 7.4 390.0 
CKA 2023 11 27 331 1.7 4.2 0.5 -999.9 18.6 4.5 6.8 390.0 
CKA 2023 11 28 332 -2.8 4.2 1.0 -999.9 3.4 2.1 6.0 390.0 
CKA 2023 11 29 333 -2.2 2.9 2.2 -999.9 2.2 2.6 5.6 390.0 
CKA 2023 11 30 334 -1.9 2.3 1.1 -999.9 0.8 0.6 6.2 390.0 
CKA 2023 12 1 335 -2.5 0.3 1.0 -999.9 0.0 0.9 5.2 390.0 
CKA 2023 12 2 336 -3.6 -1.7 1.7 -999.9 0.0 1.0 4.1 390.0 
CKA 2023 12 3 337 -3.3 1.2 5.0 -999.9 0.1 2.2 4.7 390.0 
CKA 2023 12 4 338 -1.6 0.8 1.4 -999.9 1.4 3.4 5.1 390.0 
CKA 2023 12 5 339 0.7 6.7 1.1 -999.9 2.9 1.8 7.6 390.0 
CKA 2023 12 6 340 0.5 5.5 2.2 -999.9 1.3 1.9 7.0 390.0 
CKA 2023 12 7 341 -0.8 2.9 4.5 -999.9 0.0 2.1 6.0 390.0 
CKA 2023 12 8 342 0.5 7.1 1.2 -999.9 1.5 1.7 7.4 390.0 
CKA 2023 12 9 343 3.8 10.4 1.6 -999.9 2.6 3.4 8.9 390.0 
CKA 2023 12 10 344 8.0 11.1 3.2 -999.9 1.3 4.7 8.7 390.0 
CKA 2023 12 11 345 7.3 11.0 1.9 -999.9 0.4 3.0 9.0 390.0 
CKA 2023 12 12 346 4.9 12.7 3.3 -999.9 2.9 1.5 10.1 390.0 
CKA 2023 12 13 347 3.5 12.5 4.2 -999.9 0.2 1.2 9.6 390.0 
CKA 2023 12 14 348 2.5 6.6 0.8 -999.9 1.5 1.5 8.3 390.0 
CKA 2023 12 15 349 1.3 8.1 1.5 -999.9 0.2 0.9 7.6 390.0 
CKA 2023 12 16 350 6.0 10.3 3.5 -999.9 0.0 1.5 8.5 390.0 
CKA 2023 12 17 351 3.3 12.0 4.6 -999.9 0.0 1.3 9.7 390.0 
CKA 2023 12 18 352 -0.7 8.9 4.9 -999.9 0.0 1.1 6.8 390.0 
CKA 2023 12 19 353 2.1 6.4 1.2 -999.9 5.4 3.6 7.4 390.0 
CKA 2023 12 20 354 4.7 8.1 1.6 -999.9 1.3 3.1 8.3 390.0 
CKA 2023 12 21 355 3.5 11.2 1.0 -999.9 13.3 4.8 8.9 390.0 
CKA 2023 12 22 356 3.5 9.3 0.7 -999.9 4.8 4.8 8.4 390.0 
CKA 2023 12 23 357 5.7 9.7 1.2 -999.9 3.1 4.4 8.8 390.0 
CKA 2023 12 24 358 8.9 12.5 1.2 -999.9 1.8 5.1 10.5 390.0 
CKA 2023 12 25 359 10.5 12.2 0.8 -999.9 1.3 3.8 11.4 390.0 
CKA 2023 12 26 360 4.1 11.2 2.5 -999.9 0.1 3.0 8.3 390.0 
CKA 2023 12 27 361 3.8 9.4 1.8 -999.9 0.0 2.7 8.2 390.0 
CKA 2023 12 28 362 7.6 11.5 4.7 -999.9 0.0 3.0 8.8 390.0 
CKA 2023 12 29 363 7.7 10.7 2.7 -999.9 0.2 4.2 9.1 390.0 
CKA 2023 12 30 364 7.2 10.7 4.2 -999.9 0.4 2.8 8.8 390.0 
CKA 2023 12 31 365 6.1 9.6 2.2 -999.9 0.7 3.3 8.6 390.0 
